[
  {
    "timezoneAbr": "CLT",
    "timezone": "America/Santiago"
  },
  {
    "timezoneAbr": "CDT",
    "timezone": "America/Chicago"
  },
  {
    "timezoneAbr": "MSK",
    "timezone": "Europe/Moscow"
  },
  {
    "timezoneAbr": "MDT",
    "timezone": "America/Denver"
  },
  {
    "timezoneAbr": "GMT",
    "timezone": "GMT"
  },
  {
    "timezoneAbr": "PHT",
    "timezone": "Asia/Manila"
  },
  {
    "timezoneAbr": "COT",
    "timezone": "America/Bogota"
  },
  {
    "timezoneAbr": "PKT",
    "timezone": "Asia/Karachi"
  },
  {
    "timezoneAbr": "HST",
    "timezone": "Pacific/Honolulu"
  },
  {
    "timezoneAbr": "NDT",
    "timezone": "America/St_Johns"
  },
  {
    "timezoneAbr": "EST",
    "timezone": "America/New_York"
  },
  {
    "timezoneAbr": "AST",
    "timezone": "America/Halifax"
  },
  {
    "timezoneAbr": "AKST",
    "timezone": "America/Juneau"
  },
  {
    "timezoneAbr": "GST",
    "timezone": "Asia/Dubai"
  },
  {
    "timezoneAbr": "CET",
    "timezone": "Europe/Paris"
  },
  {
    "timezoneAbr": "IRST",
    "timezone": "Asia/Tehran"
  },
  {
    "timezoneAbr": "NST",
    "timezone": "America/St_Johns"
  },
  {
    "timezoneAbr": "NZDT",
    "timezone": "Pacific/Auckland"
  },
  {
    "timezoneAbr": "MST",
    "timezone": "America/St_Johns"
  },
  {
    "timezoneAbr": "UTC",
    "timezone": "UTC"
  },
  {
    "timezoneAbr": "BRST",
    "timezone": "America/Sao_Paulo"
  },
  {
    "timezoneAbr": "IST",
    "timezone": "Asia/Kolkata"
  },
  {
    "timezoneAbr": "ADT",
    "timezone": "America/Halifax"
  },
  {
    "timezoneAbr": "EET",
    "timezone": "Europe/Athens"
  },
  {
    "timezoneAbr": "EDT",
    "timezone": "America/New_York"
  },
  {
    "timezoneAbr": "TRT",
    "timezone": "Europe/Istanbul"
  },
  {
    "timezoneAbr": "BDT",
    "timezone": "Asia/Dhaka"
  },
  {
    "timezoneAbr": "AKDT",
    "timezone": "America/Juneau"
  },
  {
    "timezoneAbr": "WAT",
    "timezone": "Africa/Lagos"
  },
  {
    "timezoneAbr": "NZST",
    "timezone": "Pacific/Auckland"
  },
  {
    "timezoneAbr": "WIT",
    "timezone": "Asia/Jakarta"
  },
  {
    "timezoneAbr": "SGT",
    "timezone": "Asia/Singapore"
  },
  {
    "timezoneAbr": "KST",
    "timezone": "Asia/Seoul"
  },
  {
    "timezoneAbr": "PST",
    "timezone": "America/Los_Angeles"
  },
  {
    "timezoneAbr": "CEST",
    "timezone": "Europe/Paris"
  },
  {
    "timezoneAbr": "ART",
    "timezone": "America/Argentina/Buenos_Aires"
  },
  {
    "timezoneAbr": "PDT",
    "timezone": "America/Los_Angeles"
  },
  {
    "timezoneAbr": "MSD",
    "timezone": "Europe/Moscow"
  },
  {
    "timezoneAbr": "BST",
    "timezone": "Europe/London"
  },
  {
    "timezoneAbr": "HKT",
    "timezone": "Asia/Hong_Kong"
  },
  {
    "timezoneAbr": "WEST",
    "timezone": "Europe/Lisbon"
  },
  {
    "timezoneAbr": "WET",
    "timezone": "Europe/Lisbon"
  },
  {
    "timezoneAbr": "ICT",
    "timezone": "Asia/Bangkok"
  },
  {
    "timezoneAbr": "PET",
    "timezone": "America/Lima"
  },
  {
    "timezoneAbr": "JST",
    "timezone": "Asia/Tokyo"
  },
  {
    "timezoneAbr": "CAT",
    "timezone": "Africa/Harare"
  },
  {
    "timezoneAbr": "BRT",
    "timezone": "America/Sao_Paulo"
  },
  {
    "timezoneAbr": "EAT",
    "timezone": "Africa/Addis_Ababa"
  },
  {
    "timezoneAbr": "CLST",
    "timezone": "America/Santiago"
  },
  {
    "timezoneAbr": "CST",
    "timezone": "America/Chicago"
  },
  {
    "timezoneAbr": "EEST",
    "timezone": "Europe/Athens"
  }
]